app\health\handler\JndiDatasourceHandler.class
app\health\entities\RuntimeInfo.class
app\health\entities\ServerInfo.class
app\health\entities\DataBaseInfo.class
app\health\marshaller\JsonMarshaller.class
